{
  "fruity": {
    "name": "Fruity",
    "citrus": {
      "name": "Citrus Fruit",
      "characteristics": [
        {"name": "Lemon"},
        {"name": "Grapefruit"},
        {"name": "Orange"}
      ]
    },
    "berry": {
      "name": "Berry Fruit",
      "characteristics": [
        {"name": "Blackcurrant"},
        {"name": "Raspberry"},
        {"name": "Strawberry"}
      ]
    },
    "pip": {
      "name": "Pip Fruit",
      "characteristics": [
        {"name": "Apple"},
        {"name": "Pear"}
      ]
    },
    "tropical": {
      "name": "Tropical Fruit",
      "characteristics": [
        {"name": "Banana"},
        {"name": "Pineapple"},
        {"name": "Mango"},
        {"name": "Melon"}
      ]
    },
    "artificial": {
      "name": "Artificial Fruit",
      "characteristics": [
        {"name": "Kind of refreshing boiled sweet"}
      ]
    },
    "dried": {
      "name": "Dried Fruit",
      "characteristics": [
        {"name": "Prune"},
        {"name": "Jam"}
      ]
    }
  },
  "flowery": {
    "name": "Flowery",
    "sweet_blossom": {
      "name": "Sweet Blossom",
      "characteristics": [
        {"name": "Rose"},
        {"name": "Jasmine"},
        {"name": "Acacia Blossom"}
      ]
    },
    "pungent_blossom": {
      "name": "Pungent Blossom",
      "characteristics": [
        {"name": "Yarrow"},
        {"name": "Geranium"},
        {"name": "Lavender"}
      ]
    }
  },
  "vegetal": {
    "name": "Vegetal",
    "fresh": {
      "name": "Freshly Vegetal",
      "characteristics": [
        {"name": "Grass"},
        {"name": "Green Walnut Shell"},
        {"name": "Mint"},
        {"name": "Onion"}
      ]
    },
    "boiled": {
      "name": "Boiled Vegetal",
      "characteristics": [
        {"name": "Cabbage"},
        {"name": "Celery"},
        {"name": "Tomato"}
      ]
    },
    "dried": {
      "name": "Dried Vegetal",
      "characteristics": [
        {"name": "Straw"},
        {"name": "Grain"},
        {"name": "Tobacco"}
      ]
    },
    "resinous": {
      "name": "Resinous",
      "characteristics": [
        {"name": "Resin"},
        {"name": "Wood"}
      ]
    }
  },
  "spicy": {
    "name": "Spicy",
    "pungent_spice": {
      "name": "Pungent Spice",
      "characteristics": [
        {"name": "Sweet Liquorice"},
        {"name": "Black Pepper"},
        {"name": "Nutmeg"}
      ]
    },
    "sweet_spice": {
      "name": "Sweet Spice",
      "characteristics": [
        {"name": "Vanilla"},
        {"name": "Cloves"},
        {"name": "Aniseed"}
      ]
    },
    "nutty": {
      "name": "Nutty",
      "characteristics": [
        {"name": "Hazelnut"},
        {"name": "Marzipan"}
      ]
    },
    "herbs": {
      "name": "Herbs",
      "characteristics": [
        {"name": "Thyme"},
        {"name": "Laurel"}
      ]
    }
  },
  "warmth_minted": {
    "name": "Warmth-Minted",
    "caramelised": {
      "name": "Caramelised",
      "characteristics": [
        {"name": "Caramel"},
        {"name": "Malt"},
        {"name": "Honey"},
        {"name": "Cocoa"}
      ]
    },
    "smokey": {
      "name": "Smokey",
      "characteristics": [
        {"name": "Smoked Bacon"},
        {"name": "Leather"}
      ]
    },
    "roast": {
      "name": "Roast Flavours",
      "characteristics": [
        {"name": "Roasted Bread"},
        {"name": "Coffee"}
      ]
    }
  },
  "biological": {
    "name": "Biological",
    "bakery": {
      "name": "Bakery Products",
      "characteristics": [
        {"name": "Bread"},
        {"name": "Yeast"},
        {"name": "Gingerbread"}
      ]
    },
    "animalistic": {
      "name": "Animalistic",
      "characteristics": [
        {"name": "Billy Goat"},
        {"name": "Oxidation Flavour"}
      ]
    },
    "lactic": {
      "name": "Lactic",
      "characteristics": [
        {"name": "Butter"},
        {"name": "Lactic Acid"}
      ]
    },
    "alcoholic": {
      "name": "Alkoholic",
      "characteristics": [
        {"name": "Sherry"}
      ]
    }
  }
}
